{
	"info": {
		"_postman_id": "bdde5351-6c76-499d-b5d3-f7083af34e8c",
		"name": "Audit Trail",
		"schema": "https://schema.getpostman.com/json/collection/v2.1.0/collection.json"
	},
	"item": [
		{
			"name": "Check-In",
			"request": {
				"method": "POST",
				"header": [],
				"body": {
					"mode": "urlencoded",
					"urlencoded": [
						{
							"key": "status",
							"value": "1",
							"type": "text"
						},
						{
							"key": "personId",
							"value": "12345680",
							"type": "text"
						},
						{
							"key": "objectId",
							"value": "3",
							"type": "text"
						}
					]
				},
				"url": {
					"raw": "http://127.0.0.1:1880/audit/check-point/",
					"protocol": "http",
					"host": [
						"127",
						"0",
						"0",
						"1"
					],
					"port": "1880",
					"path": [
						"audit",
						"check-point",
						""
					]
				}
			},
			"response": []
		},
		{
			"name": "PMS API List",
			"request": {
				"method": "GET",
				"header": [],
				"url": {
					"raw": "http://127.0.0.1:1880/pms/api/object/sensors/?objectId=2",
					"protocol": "http",
					"host": [
						"127",
						"0",
						"0",
						"1"
					],
					"port": "1880",
					"path": [
						"pms",
						"api",
						"object",
						"sensors",
						""
					],
					"query": [
						{
							"key": "objectId",
							"value": "2"
						}
					]
				}
			},
			"response": []
		},
		{
			"name": "IOT-Gateway API",
			"request": {
				"method": "GET",
				"header": [],
				"url": {
					"raw": "http://127.0.0.1:1880/gateway/api/?sensorId=2",
					"protocol": "http",
					"host": [
						"127",
						"0",
						"0",
						"1"
					],
					"port": "1880",
					"path": [
						"gateway",
						"api",
						""
					],
					"query": [
						{
							"key": "sensorId",
							"value": "2"
						}
					]
				}
			},
			"response": []
		},
		{
			"name": "Measurment List API",
			"request": {
				"method": "GET",
				"header": [],
				"url": {
					"raw": "http://127.0.0.1:1880/audit/measurments/list",
					"protocol": "http",
					"host": [
						"127",
						"0",
						"0",
						"1"
					],
					"port": "1880",
					"path": [
						"audit",
						"measurments",
						"list"
					]
				}
			},
			"response": []
		},
		{
			"name": "Person Obfuscation API",
			"request": {
				"method": "POST",
				"header": [],
				"body": {
					"mode": "urlencoded",
					"urlencoded": [
						{
							"key": "personId",
							"value": "1234",
							"type": "text"
						}
					]
				},
				"url": {
					"raw": "http://127.0.0.1:1880/hr-system/obfuscate/",
					"protocol": "http",
					"host": [
						"127",
						"0",
						"0",
						"1"
					],
					"port": "1880",
					"path": [
						"hr-system",
						"obfuscate",
						""
					]
				}
			},
			"response": []
		},
		{
			"name": "Person Deobfuscation API",
			"request": {
				"method": "POST",
				"header": [],
				"body": {
					"mode": "urlencoded",
					"urlencoded": [
						{
							"key": "obfuscatedId",
							"value": "1621775984296",
							"type": "text"
						}
					]
				},
				"url": {
					"raw": "http://127.0.0.1:1880/hr-system/deobfuscate/",
					"protocol": "http",
					"host": [
						"127",
						"0",
						"0",
						"1"
					],
					"port": "1880",
					"path": [
						"hr-system",
						"deobfuscate",
						""
					]
				}
			},
			"response": []
		}
	]
}